module github.com/peak-fit/krithick_j

go 1.22.2

require (
	github.com/gofiber/fiber/v2 v2.52.4
	github.com/golang-jwt/jwt/v5 v5.2.1
)

require (
	github.com/MicahParks/keyfunc/v2 v2.1.0 // indirect
	github.com/fsnotify/fsnotify v1.7.0 // indirect
	github.com/go-sql-driver/mysql v1.7.0 // indirect
	github.com/hashicorp/hcl v1.0.0 // indirect
	github.com/jinzhu/inflection v1.0.0 // indirect
	github.com/jinzhu/now v1.1.5 // indirect
	github.com/magiconair/properties v1.8.7 // indirect
	github.com/mitchellh/mapstructure v1.5.0 // indirect
	github.com/pelletier/go-toml/v2 v2.1.0 // indirect
	github.com/sagikazarmark/locafero v0.4.0 // indirect
	github.com/sagikazarmark/slog-shim v0.1.0 // indirect
	github.com/sourcegraph/conc v0.3.0 // indirect
	github.com/spf13/afero v1.11.0 // indirect
	github.com/spf13/cast v1.6.0 // indirect
	github.com/spf13/pflag v1.0.5 // indirect
	github.com/subosito/gotenv v1.6.0 // indirect
	go.uber.org/atomic v1.9.0 // indirect
	go.uber.org/multierr v1.9.0 // indirect
	golang.org/x/exp v0.0.0-20230905200255-921286631fa9 // indirect
	golang.org/x/text v0.14.0 // indirect
	gopkg.in/ini.v1 v1.67.0 // indirect
	gopkg.in/yaml.v3 v3.0.1 // indirect
)

require (
	github.com/andybalholm/brotli v1.0.5 // indirect
	github.com/gofiber/contrib/jwt v1.0.9
	github.com/golang-jwt/jwt v3.2.2+incompatible
	github.com/google/uuid v1.5.0 // indirect
	github.com/jenazads/gomail v0.0.0-20190819174001-821728186f39
	github.com/klauspost/compress v1.17.0 // indirect
	github.com/mattn/go-colorable v0.1.13 // indirect
	github.com/mattn/go-isatty v0.0.20 // indirect
	github.com/mattn/go-runewidth v0.0.15 // indirect
	github.com/rivo/uniseg v0.2.0 // indirect
	github.com/spf13/viper v1.18.2
	github.com/valyala/bytebufferpool v1.0.0 // indirect
	github.com/valyala/fasthttp v1.51.0 // indirect
	github.com/valyala/tcplisten v1.0.0 // indirect
	github.com/wneessen/go-mail v0.4.1
	golang.org/x/sys v0.15.0 // indirect
	gorm.io/driver/mysql v1.5.6
	gorm.io/gorm v1.25.10
)
